material Cube/Png
{
  technique
  {
    pass ambient diffuse specular
    {
      ambient 1 1 1 1
      diffuse 1 1 1 1 
      specular 0 0 0 1
      texture_unit
      {
        texture riders.png
      }

    }
  }
}

material Cube/PngGlow : Cube/Png
{
  technique
  {
    pass emissive
    {
      emissive 1 1 0 1
    }
  }
}
